{
    "success": true,
    "message": "Laporan laba berhasil dimuat",
    "data": {
        "title": "Laporan Laba Bulanan - July 2026",
        "generated_at": "14\/07\/2026 14:54:53",
        "summary": {
            "total_profit": 346842,
            "total_profit_formatted": "Rp 346.842",
            "realized_profit": 301842,
            "realized_profit_formatted": "Rp 301.842",
            "pending_profit": 45000,
            "pending_profit_formatted": "Rp 45.000",
            "total_pendapatan_kotor": 4004000,
            "total_pendapatan_kotor_formatted": "Rp 4.004.000",
            "total_beban": 3657158,
            "total_beban_formatted": "Rp 3.657.158"
        },
        "profits": {
            "current_page": 1,
            "data": [
                {
                    "id": 129,
                    "transaction_id": 128,
                    "invoice_number": "INV\/20260708\/00128",
                    "product_id": 4,
                    "product_name": "Beras iR42",
                    "product_category": "rice",
                    "quantity_sold": 1,
                    "profit_amount": 15000,
                    "profit_amount_formatted": "Rp 15.000",
                    "profit_date": "2026-07-07T17:00:00.000000Z",
                    "profit_date_formatted": "08\/07\/2026",
                    "profit_status": "pending",
                    "total_penjualan": 175000,
                    "total_penjualan_formatted": "Rp 175.000",
                    "total_modal": 160000,
                    "total_modal_formatted": "Rp 160.000"
                },
                {
                    "id": 128,
                    "transaction_id": 127,
                    "invoice_number": "INV\/20260708\/00127",
                    "product_id": 4,
                    "product_name": "Beras iR42",
                    "product_category": "rice",
                    "quantity_sold": 1,
                    "profit_amount": 15000,
                    "profit_amount_formatted": "Rp 15.000",
                    "profit_date": "2026-07-07T17:00:00.000000Z",
                    "profit_date_formatted": "08\/07\/2026",
                    "profit_status": "realized",
                    "total_penjualan": 175000,
                    "total_penjualan_formatted": "Rp 175.000",
                    "total_modal": 160000,
                    "total_modal_formatted": "Rp 160.000"
                },
                {
                    "id": 127,
                    "transaction_id": 126,
                    "invoice_number": "INV\/20260708\/00126",
                    "product_id": 4,
                    "product_name": "Beras iR42",
                    "product_category": "rice",
                    "quantity_sold": 1,
                    "profit_amount": 15000,
                    "profit_amount_formatted": "Rp 15.000",
                    "profit_date": "2026-07-07T17:00:00.000000Z",
                    "profit_date_formatted": "08\/07\/2026",
                    "profit_status": "realized",
                    "total_penjualan": 175000,
                    "total_penjualan_formatted": "Rp 175.000",
                    "total_modal": 160000,
                    "total_modal_formatted": "Rp 160.000"
                },
                {
                    "id": 126,
                    "transaction_id": 125,
                    "invoice_number": "INV\/20260708\/00125",
                    "product_id": 4,
                    "product_name": "Beras iR42",
                    "product_category": "rice",
                    "quantity_sold": 1,
                    "profit_amount": 15000,
                    "profit_amount_formatted": "Rp 15.000",
                    "profit_date": "2026-07-07T17:00:00.000000Z",
                    "profit_date_formatted": "08\/07\/2026",
                    "profit_status": "realized",
                    "total_penjualan": 175000,
                    "total_penjualan_formatted": "Rp 175.000",
                    "total_modal": 160000,
                    "total_modal_formatted": "Rp 160.000"
                },
                {
                    "id": 125,
                    "transaction_id": 124,
                    "invoice_number": "INV\/20260708\/00124",
                    "product_id": 4,
                    "product_name": "Beras iR42",
                    "product_category": "rice",
                    "quantity_sold": 1,
                    "profit_amount": 15000,
                    "profit_amount_formatted": "Rp 15.000",
                    "profit_date": "2026-07-07T17:00:00.000000Z",
                    "profit_date_formatted": "08\/07\/2026",
                    "profit_status": "realized",
                    "total_penjualan": 175000,
                    "total_penjualan_formatted": "Rp 175.000",
                    "total_modal": 160000,
                    "total_modal_formatted": "Rp 160.000"
                },
                {
                    "id": 96,
                    "transaction_id": 93,
                    "invoice_number": "INV\/20260708\/00093",
                    "product_id": 4,
                    "product_name": "Beras iR42",
                    "product_category": "rice",
                    "quantity_sold": 1,
                    "profit_amount": 15000,
                    "profit_amount_formatted": "Rp 15.000",
                    "profit_date": "2026-07-07T17:00:00.000000Z",
                    "profit_date_formatted": "08\/07\/2026",
                    "profit_status": "realized",
                    "total_penjualan": 175000,
                    "total_penjualan_formatted": "Rp 175.000",
                    "total_modal": 160000,
                    "total_modal_formatted": "Rp 160.000"
                },
                {
                    "id": 95,
                    "transaction_id": 92,
                    "invoice_number": "INV\/20260708\/00092",
                    "product_id": 4,
                    "product_name": "Beras iR42",
                    "product_category": "rice",
                    "quantity_sold": 1,
                    "profit_amount": 15000,
                    "profit_amount_formatted": "Rp 15.000",
                    "profit_date": "2026-07-07T17:00:00.000000Z",
                    "profit_date_formatted": "08\/07\/2026",
                    "profit_status": "pending",
                    "total_penjualan": 175000,
                    "total_penjualan_formatted": "Rp 175.000",
                    "total_modal": 160000,
                    "total_modal_formatted": "Rp 160.000"
                },
                {
                    "id": 94,
                    "transaction_id": 91,
                    "invoice_number": "INV\/20260708\/00091",
                    "product_id": 4,
                    "product_name": "Beras iR42",
                    "product_category": "rice",
                    "quantity_sold": 1,
                    "profit_amount": 15000,
                    "profit_amount_formatted": "Rp 15.000",
                    "profit_date": "2026-07-07T17:00:00.000000Z",
                    "profit_date_formatted": "08\/07\/2026",
                    "profit_status": "pending",
                    "total_penjualan": 175000,
                    "total_penjualan_formatted": "Rp 175.000",
                    "total_modal": 160000,
                    "total_modal_formatted": "Rp 160.000"
                },
                {
                    "id": 93,
                    "transaction_id": 90,
                    "invoice_number": "INV\/20260708\/00090",
                    "product_id": 4,
                    "product_name": "Beras iR42",
                    "product_category": "rice",
                    "quantity_sold": 1,
                    "profit_amount": 15000,
                    "profit_amount_formatted": "Rp 15.000",
                    "profit_date": "2026-07-07T17:00:00.000000Z",
                    "profit_date_formatted": "08\/07\/2026",
                    "profit_status": "realized",
                    "total_penjualan": 175000,
                    "total_penjualan_formatted": "Rp 175.000",
                    "total_modal": 160000,
                    "total_modal_formatted": "Rp 160.000"
                },
                {
                    "id": 92,
                    "transaction_id": 89,
                    "invoice_number": "INV\/20260708\/00089",
                    "product_id": 4,
                    "product_name": "Beras iR42",
                    "product_category": "rice",
                    "quantity_sold": 1,
                    "profit_amount": 15000,
                    "profit_amount_formatted": "Rp 15.000",
                    "profit_date": "2026-07-07T17:00:00.000000Z",
                    "profit_date_formatted": "08\/07\/2026",
                    "profit_status": "realized",
                    "total_penjualan": 175000,
                    "total_penjualan_formatted": "Rp 175.000",
                    "total_modal": 160000,
                    "total_modal_formatted": "Rp 160.000"
                }
            ],
            "first_page_url": "http:\/\/127.0.0.1:8089\/api\/admin\/reports\/profit?page=1",
            "from": 1,
            "last_page": 4,
            "last_page_url": "http:\/\/127.0.0.1:8089\/api\/admin\/reports\/profit?page=4",
            "links": [
                {
                    "url": null,
                    "label": "pagination.previous",
                    "page": null,
                    "active": false
                },
                {
                    "url": "http:\/\/127.0.0.1:8089\/api\/admin\/reports\/profit?page=1",
                    "label": "1",
                    "page": 1,
                    "active": true
                },
                {
                    "url": "http:\/\/127.0.0.1:8089\/api\/admin\/reports\/profit?page=2",
                    "label": "2",
                    "page": 2,
                    "active": false
                },
                {
                    "url": "http:\/\/127.0.0.1:8089\/api\/admin\/reports\/profit?page=3",
                    "label": "3",
                    "page": 3,
                    "active": false
                },
                {
                    "url": "http:\/\/127.0.0.1:8089\/api\/admin\/reports\/profit?page=4",
                    "label": "4",
                    "page": 4,
                    "active": false
                },
                {
                    "url": "http:\/\/127.0.0.1:8089\/api\/admin\/reports\/profit?page=2",
                    "label": "pagination.next",
                    "page": 2,
                    "active": false
                }
            ],
            "next_page_url": "http:\/\/127.0.0.1:8089\/api\/admin\/reports\/profit?page=2",
            "path": "http:\/\/127.0.0.1:8089\/api\/admin\/reports\/profit",
            "per_page": 10,
            "prev_page_url": null,
            "to": 10,
            "total": 37
        },
        "chart": [
            {
                "date": "2026-07-01",
                "day": "1",
                "day_short": "Wed",
                "profit": 5000,
                "profit_formatted": "Rp 5.000"
            },
            {
                "date": "2026-07-02",
                "day": "2",
                "day_short": "Thu",
                "profit": 50000,
                "profit_formatted": "Rp 50.000"
            },
            {
                "date": "2026-07-03",
                "day": "3",
                "day_short": "Fri",
                "profit": 0,
                "profit_formatted": "Rp 0"
            },
            {
                "date": "2026-07-04",
                "day": "4",
                "day_short": "Sat",
                "profit": 0,
                "profit_formatted": "Rp 0"
            },
            {
                "date": "2026-07-05",
                "day": "5",
                "day_short": "Sun",
                "profit": 55000,
                "profit_formatted": "Rp 55.000"
            },
            {
                "date": "2026-07-06",
                "day": "6",
                "day_short": "Mon",
                "profit": 20000,
                "profit_formatted": "Rp 20.000"
            },
            {
                "date": "2026-07-07",
                "day": "7",
                "day_short": "Tue",
                "profit": 0,
                "profit_formatted": "Rp 0"
            },
            {
                "date": "2026-07-08",
                "day": "8",
                "day_short": "Wed",
                "profit": 216842,
                "profit_formatted": "Rp 216.842"
            },
            {
                "date": "2026-07-09",
                "day": "9",
                "day_short": "Thu",
                "profit": 0,
                "profit_formatted": "Rp 0"
            },
            {
                "date": "2026-07-10",
                "day": "10",
                "day_short": "Fri",
                "profit": 0,
                "profit_formatted": "Rp 0"
            },
            {
                "date": "2026-07-11",
                "day": "11",
                "day_short": "Sat",
                "profit": 0,
                "profit_formatted": "Rp 0"
            },
            {
                "date": "2026-07-12",
                "day": "12",
                "day_short": "Sun",
                "profit": 0,
                "profit_formatted": "Rp 0"
            },
            {
                "date": "2026-07-13",
                "day": "13",
                "day_short": "Mon",
                "profit": 0,
                "profit_formatted": "Rp 0"
            },
            {
                "date": "2026-07-14",
                "day": "14",
                "day_short": "Tue",
                "profit": 0,
                "profit_formatted": "Rp 0"
            },
            {
                "date": "2026-07-15",
                "day": "15",
                "day_short": "Wed",
                "profit": 0,
                "profit_formatted": "Rp 0"
            },
            {
                "date": "2026-07-16",
                "day": "16",
                "day_short": "Thu",
                "profit": 0,
                "profit_formatted": "Rp 0"
            },
            {
                "date": "2026-07-17",
                "day": "17",
                "day_short": "Fri",
                "profit": 0,
                "profit_formatted": "Rp 0"
            },
            {
                "date": "2026-07-18",
                "day": "18",
                "day_short": "Sat",
                "profit": 0,
                "profit_formatted": "Rp 0"
            },
            {
                "date": "2026-07-19",
                "day": "19",
                "day_short": "Sun",
                "profit": 0,
                "profit_formatted": "Rp 0"
            },
            {
                "date": "2026-07-20",
                "day": "20",
                "day_short": "Mon",
                "profit": 0,
                "profit_formatted": "Rp 0"
            },
            {
                "date": "2026-07-21",
                "day": "21",
                "day_short": "Tue",
                "profit": 0,
                "profit_formatted": "Rp 0"
            },
            {
                "date": "2026-07-22",
                "day": "22",
                "day_short": "Wed",
                "profit": 0,
                "profit_formatted": "Rp 0"
            },
            {
                "date": "2026-07-23",
                "day": "23",
                "day_short": "Thu",
                "profit": 0,
                "profit_formatted": "Rp 0"
            },
            {
                "date": "2026-07-24",
                "day": "24",
                "day_short": "Fri",
                "profit": 0,
                "profit_formatted": "Rp 0"
            },
            {
                "date": "2026-07-25",
                "day": "25",
                "day_short": "Sat",
                "profit": 0,
                "profit_formatted": "Rp 0"
            },
            {
                "date": "2026-07-26",
                "day": "26",
                "day_short": "Sun",
                "profit": 0,
                "profit_formatted": "Rp 0"
            },
            {
                "date": "2026-07-27",
                "day": "27",
                "day_short": "Mon",
                "profit": 0,
                "profit_formatted": "Rp 0"
            },
            {
                "date": "2026-07-28",
                "day": "28",
                "day_short": "Tue",
                "profit": 0,
                "profit_formatted": "Rp 0"
            },
            {
                "date": "2026-07-29",
                "day": "29",
                "day_short": "Wed",
                "profit": 0,
                "profit_formatted": "Rp 0"
            },
            {
                "date": "2026-07-30",
                "day": "30",
                "day_short": "Thu",
                "profit": 0,
                "profit_formatted": "Rp 0"
            },
            {
                "date": "2026-07-31",
                "day": "31",
                "day_short": "Fri",
                "profit": 0,
                "profit_formatted": "Rp 0"
            }
        ]
    },
    "code": 200
}